<svg width="512" height="298" xmlns="http://www.w3.org/2000/svg">
 <style type="text/css">.st0{fill:#FFFFFF;}
	.st1{fill:#AD1F23;}</style>

 <g>
  <title>background</title>
  <rect fill="none" id="canvas_background" height="300" width="514" y="-1" x="-1"/>
 </g>
 <g>
  <title>Layer 1</title>
  <g id="svg_1">
   <rect x="-1" id="svg_2" y="2.7" width="512" height="298.7" class="st0"/>
   <path id="svg_3" d="m255,62.4c49.5,0 89.6,40.1 89.6,89.6c0,49.5 -40.1,89.6 -89.6,89.6c-49.5,0 -89.6,-40.1 -89.6,-89.6c0,-49.5 40.1,-89.6 89.6,-89.6" class="st1"/>
  </g>
 </g>
</svg>